{
  "compilerOptions": {
    "target": "es2015",
    "module": "esnext",
    "lib": ["esnext", "dom"],
    "jsx": "preserve",
    "experimentalDecorators": true,
    "baseUrl": ".",
    "paths": {
      "@/*": ["./src/*"]
    }
  },
  "include": ["src/**/*.js", "src/**/*.vue", "src/**/*.ts", "src/**/*.d.ts", "src/**/*"],
  "exclude": ["node_modules", "dist"]
}
